{
    "KPlugin": {
        "Description": "Look up definitions/declarations with CTags",
        "Description[az]": "CTags ilə bildirişlərədə və tanıtmalarda axtarın",
        "Description[bg]": "Търсене на  определения/декларации с CTags",
        "Description[ca@valencia]": "Busca definicions/declaracions amb CTags",
        "Description[ca]": "Cerca definicions/declaracions amb CTags",
        "Description[cs]": "Vyhledávání definic/deklarací pomocí CTags",
        "Description[de]": "Definition/Deklaration mit CTags nachschauen",
        "Description[el]": "Αναζήτηση ορισμών/δηλώσεων με το CTags",
        "Description[en_GB]": "Look up definitions/declarations with CTags",
        "Description[eo]": "Elserĉi difinojn/deklarojn per CTags",
        "Description[es]": "Buscar definiciones/declaraciones con CTags",
        "Description[eu]": "Bilatu definizioak/deklarazioak «CTags» erabiliz",
        "Description[fi]": "Etsi CTagsilla määritelmiä/deklaraatioita",
        "Description[fr]": "Recherche les définitions / déclarations avec « CTags »",
        "Description[gl]": "Busca de definicións/declaracións con CTags.",
        "Description[hu]": "Definíciók/deklarációk keresése CTags használatával",
        "Description[ia]": "Cerca definitiones/declarationes con CTags",
        "Description[ie]": "Serchar definitiones e declarationes med CTags",
        "Description[it]": "Cerca definizioni e dichiarazioni con CTags",
        "Description[ka]": "CTags-ის აღწერა/დეკლარაციის მოძებნა",
        "Description[ko]": "CTags를 사용하여 선언/정의 찾기",
        "Description[nl]": "Defenities/declaraties opzoeken met CTags",
        "Description[pl]": "Wyszukiwanie definicji/deklaracji w CTags",
        "Description[pt]": "Procurar pelas definições/declarações com o CTags",
        "Description[ru]": "Поиск определений и объявлений с помощью индекса CTags",
        "Description[sk]": "Vyhľadanie definície/deklarácie s CTags",
        "Description[sl]": "Preglej definicije/deklaracije s CTags",
        "Description[sv]": "Slå upp definitioner och deklarationer med Ctags",
        "Description[tr]": "CTags ile tanımlara/beyanlara bak",
        "Description[uk]": "Пошук визначень і оголошень за допомогою CTags",
        "Description[vi]": "Tra định nghĩa / khai báo với CTags",
        "Description[x-test]": "xxLook up definitions/declarations with CTagsxx",
        "Description[zh_CN]": "使用 CTags 查找定义/声明",
        "Icon": "text-x-csrc",
        "Name": "CTags",
        "Name[ar]": "وسوم‌سي",
        "Name[az]": "CTags",
        "Name[bg]": "CTags",
        "Name[ca@valencia]": "CTags",
        "Name[ca]": "CTags",
        "Name[cs]": "CTags",
        "Name[de]": "CTags",
        "Name[el]": "CTags",
        "Name[en_GB]": "CTags",
        "Name[eo]": "CTags",
        "Name[es]": "CTags",
        "Name[eu]": "CTags",
        "Name[fi]": "CTags",
        "Name[fr]": "CTags",
        "Name[gl]": "CTags",
        "Name[hu]": "CTags",
        "Name[ia]": "CTags",
        "Name[ie]": "CTags",
        "Name[it]": "CTags",
        "Name[ka]": "CTags",
        "Name[ko]": "CTags",
        "Name[my]": "စီတပ်",
        "Name[nl]": "CTags",
        "Name[pl]": "CTags",
        "Name[pt]": "CTags",
        "Name[pt_BR]": "CTags",
        "Name[ru]": "CTags",
        "Name[sk]": "CTags",
        "Name[sl]": "CTags",
        "Name[sv]": "CTags",
        "Name[tr]": "CTags",
        "Name[uk]": "CTags",
        "Name[vi]": "CTags",
        "Name[x-test]": "xxCTagsxx",
        "Name[zh_CN]": "CTags",
        "ServiceTypes": [
            "KTextEditor/Plugin",
            "KDevelop/Plugin"
        ]
    }
}
